{
  "extends": "../../tslint.json",
  "rules": {
    "curly": [2, "multi-line"],
    "directive-selector": [
      true,
      "attribute",
      "kp",
      "camelCase"
    ],
    "component-selector": [
      true,
      "element",
      "kp",
      "kebab-case"
    ],
    "variable-name": [
      "allow-leading-underscore"
    ]
  }
}
